{
  "prepare_queue": {
    "installed": [],
    "uninstalled": []
  },
  "config_munge": {
    "files": {
      "NSCameraUsageDescription": {
        "parents": {
          "undefined": [
            {
              "xml": "<string>상담 신청을 위해 사진 촬영에 사용됩니다.</string>",
              "count": 26
            }
          ]
        }
      },
      "NSLocationWhenInUseUsageDescription": {
        "parents": {
          "undefined": [
            {
              "xml": "<string>촬영 위치 확인에 사용됩니다.</string>",
              "count": 26
            }
          ]
        }
      },
      "NSPhotoLibraryUsageDescription": {
        "parents": {
          "undefined": [
            {
              "xml": "<string>상담 신청을 위해 사진 촬영에 사용됩니다.</string>",
              "count": 26
            }
          ]
        }
      },
      "NSPhotoLibraryAddUsageDescription": {
        "parents": {
          "undefined": [
            {
              "xml": "<string>사진 저장에 사용됩니다.</string>",
              "count": 26
            }
          ]
        }
      },
      "*-Info.plist": {
        "parents": {
          "UIUserInterfaceStyle": [
            {
              "xml": "<string>\n                Light\n            </string>",
              "count": 26
            }
          ],
          "UIBackgroundModes": [
            {
              "xml": "<array><string>remote-notification</string></array>",
              "count": 2
            }
          ],
          "FirebaseAppDelegateProxyEnabled": [
            {
              "xml": "<false />",
              "count": 1
            }
          ],
          "LSApplicationQueriesSchemes": [
            {
              "xml": "<array><string>kftc-bankpay</string><string>ispmobile</string><string>itms-apps</string><string>hdcardappcardansimclick</string><string>smhyundaiansimclick</string><string>shinhan-sr-ansimclick</string><string>smshinhanansimclick</string><string>kb-acp</string><string>mpocket.online.ansimclick</string><string>ansimclickscard</string><string>ansimclickipcollect</string><string>vguardstart</string><string>samsungpay</string><string>scardcertiapp</string><string>lottesmartpay</string><string>lotteappcard</string><string>cloudpay</string><string>nhappvardansimclick</string><string>nonghyupcardansimclick</string><string>citispay</string><string>citicardappkr</string><string>citimobileapp</string><string>kakaotalk</string><string>payco</string><string>lpayapp</string><string>hanamopmoasign</string><string>wooripay</string><string>nhallonepayansimclick</string><string>hanawalletmembers</string></array>",
              "count": 1
            }
          ],
          "NSAppTransportSecurity": [
            {
              "xml": "<dict><key>NSAllowsArbitraryLoadsInWebContent</key><true /><key>NSAllowsArbitraryLoads</key><true /></dict>",
              "count": 1
            }
          ]
        }
      },
      "config.xml": {
        "parents": {
          "/*": [
            {
              "xml": "<feature name=\"Device\"><param name=\"ios-package\" value=\"CDVDevice\" /></feature>",
              "count": 1
            },
            {
              "xml": "<feature name=\"SitewaertsDocumentViewer\"><param name=\"ios-package\" value=\"SitewaertsDocumentViewer\" /></feature>",
              "count": 1
            },
            {
              "xml": "<feature name=\"FCMPlugin\"><param name=\"ios-package\" value=\"FCMPlugin\" /></feature>",
              "count": 1
            },
            {
              "xml": "<feature name=\"FileOpener2\"><param name=\"ios-package\" value=\"FileOpener2\" /></feature>",
              "count": 1
            },
            {
              "xml": "<feature name=\"FirebasePlugin\"><param name=\"ios-package\" value=\"FirebasePlugin\" /><param name=\"onload\" value=\"true\" /></feature>",
              "count": 1
            },
            {
              "xml": "<allow-navigation href=\"ionic://*\" />",
              "count": 1
            },
            {
              "xml": "<preference name=\"deployment-target\" value=\"11.0\" />",
              "count": 1
            },
            {
              "xml": "<feature name=\"IonicWebView\"><param name=\"ios-package\" value=\"CDVWKWebViewEngine\" /></feature>",
              "count": 1
            },
            {
              "xml": "<preference name=\"CordovaWebViewEngine\" value=\"CDVWKWebViewEngine\" />",
              "count": 1
            },
            {
              "xml": "<feature name=\"File\"><param name=\"ios-package\" value=\"CDVFile\" /><param name=\"onload\" value=\"true\" /></feature>",
              "count": 1
            },
            {
              "xml": "<feature name=\"FileTransfer\"><param name=\"ios-package\" value=\"CDVFileTransfer\" /></feature>",
              "count": 1
            },
            {
              "xml": "<feature name=\"Camera\"><param name=\"ios-package\" value=\"CDVCamera\" /></feature>",
              "count": 1
            },
            {
              "xml": "<preference name=\"CameraUsesGeolocation\" value=\"false\" />",
              "count": 1
            },
            {
              "xml": "<feature name=\"NetworkStatus\"><param name=\"ios-package\" value=\"CDVConnection\" /></feature>",
              "count": 1
            },
            {
              "xml": "<feature name=\"IamportCordova\"><param name=\"ios-package\" value=\"IamportCordova\" /></feature>",
              "count": 1
            }
          ]
        }
      },
      "*/Entitlements-Debug.plist": {
        "parents": {
          "aps-environment": [
            {
              "xml": "<string>development</string>",
              "count": 2
            }
          ]
        }
      },
      "*/Entitlements-Release.plist": {
        "parents": {
          "aps-environment": [
            {
              "xml": "<string>production</string>",
              "count": 2
            }
          ]
        }
      }
    }
  },
  "installed_plugins": {
    "cordova-android-support-gradle-release": {
      "PACKAGE_NAME": "app.picture.consult"
    },
    "cordova-plugin-android-permissions": {
      "PACKAGE_NAME": "app.picture.consult"
    },
    "cordova-plugin-androidx": {
      "PACKAGE_NAME": "app.picture.consult"
    },
    "cordova-plugin-androidx-adapter": {
      "PACKAGE_NAME": "app.picture.consult"
    },
    "cordova-plugin-device": {
      "PACKAGE_NAME": "app.picture.consult"
    },
    "cordova-plugin-document-viewer": {
      "PACKAGE_NAME": "app.picture.consult"
    },
    "cordova-plugin-fcm-with-dependecy-updated": {
      "PACKAGE_NAME": "app.picture.consult"
    },
    "cordova-plugin-file-opener2": {
      "PACKAGE_NAME": "app.picture.consult"
    },
    "cordova-plugin-firebasex": {
      "FIREBASE_ANALYTICS_COLLECTION_ENABLED": "true",
      "FIREBASE_PERFORMANCE_COLLECTION_ENABLED": "true",
      "FIREBASE_CRASHLYTICS_COLLECTION_ENABLED": "true",
      "PACKAGE_NAME": "app.picture.consult"
    },
    "cordova-plugin-ionic-webview": {
      "PACKAGE_NAME": "app.picture.consult"
    },
    "cordova-plugin-file": {
      "PACKAGE_NAME": "app.picture.consult"
    },
    "cordova-plugin-file-transfer": {
      "PACKAGE_NAME": "app.picture.consult"
    },
    "cordova-plugin-camera": {
      "PACKAGE_NAME": "app.picture.consult"
    },
    "cordova-plugin-network-information": {
      "PACKAGE_NAME": "app.picture.consult"
    },
    "iamport-cordova": {
      "PACKAGE_NAME": "app.picture.consult"
    }
  },
  "dependent_plugins": {},
  "modules": [
    {
      "id": "cordova-plugin-android-permissions.Permissions",
      "file": "plugins/cordova-plugin-android-permissions/www/permissions-dummy.js",
      "pluginId": "cordova-plugin-android-permissions",
      "clobbers": [
        "cordova.plugins.permissions"
      ]
    },
    {
      "id": "cordova-plugin-device.device",
      "file": "plugins/cordova-plugin-device/www/device.js",
      "pluginId": "cordova-plugin-device",
      "clobbers": [
        "device"
      ]
    },
    {
      "id": "cordova-plugin-document-viewer.SitewaertsDocumentViewer",
      "file": "plugins/cordova-plugin-document-viewer/www/sitewaertsdocumentviewer.js",
      "pluginId": "cordova-plugin-document-viewer",
      "clobbers": [
        "cordova.plugins.SitewaertsDocumentViewer",
        "SitewaertsDocumentViewer"
      ]
    },
    {
      "id": "cordova-plugin-fcm-with-dependecy-updated.FCMPlugin",
      "file": "plugins/cordova-plugin-fcm-with-dependecy-updated/www/FCMPlugin.js",
      "pluginId": "cordova-plugin-fcm-with-dependecy-updated",
      "clobbers": [
        "FCM"
      ]
    },
    {
      "id": "cordova-plugin-file-opener2.FileOpener2",
      "file": "plugins/cordova-plugin-file-opener2/www/plugins.FileOpener2.js",
      "pluginId": "cordova-plugin-file-opener2",
      "clobbers": [
        "cordova.plugins.fileOpener2"
      ]
    },
    {
      "id": "cordova-plugin-firebasex.FirebasePlugin",
      "file": "plugins/cordova-plugin-firebasex/www/firebase.js",
      "pluginId": "cordova-plugin-firebasex",
      "clobbers": [
        "FirebasePlugin"
      ]
    },
    {
      "id": "cordova-plugin-ionic-webview.IonicWebView",
      "file": "plugins/cordova-plugin-ionic-webview/src/www/util.js",
      "pluginId": "cordova-plugin-ionic-webview",
      "clobbers": [
        "Ionic.WebView"
      ]
    },
    {
      "id": "cordova-plugin-ionic-webview.ios-wkwebview-exec",
      "file": "plugins/cordova-plugin-ionic-webview/src/www/ios/ios-wkwebview-exec.js",
      "pluginId": "cordova-plugin-ionic-webview",
      "clobbers": [
        "cordova.exec"
      ]
    },
    {
      "id": "cordova-plugin-file.DirectoryEntry",
      "file": "plugins/cordova-plugin-file/www/DirectoryEntry.js",
      "pluginId": "cordova-plugin-file",
      "clobbers": [
        "window.DirectoryEntry"
      ]
    },
    {
      "id": "cordova-plugin-file.DirectoryReader",
      "file": "plugins/cordova-plugin-file/www/DirectoryReader.js",
      "pluginId": "cordova-plugin-file",
      "clobbers": [
        "window.DirectoryReader"
      ]
    },
    {
      "id": "cordova-plugin-file.Entry",
      "file": "plugins/cordova-plugin-file/www/Entry.js",
      "pluginId": "cordova-plugin-file",
      "clobbers": [
        "window.Entry"
      ]
    },
    {
      "id": "cordova-plugin-file.File",
      "file": "plugins/cordova-plugin-file/www/File.js",
      "pluginId": "cordova-plugin-file",
      "clobbers": [
        "window.File"
      ]
    },
    {
      "id": "cordova-plugin-file.FileEntry",
      "file": "plugins/cordova-plugin-file/www/FileEntry.js",
      "pluginId": "cordova-plugin-file",
      "clobbers": [
        "window.FileEntry"
      ]
    },
    {
      "id": "cordova-plugin-file.FileError",
      "file": "plugins/cordova-plugin-file/www/FileError.js",
      "pluginId": "cordova-plugin-file",
      "clobbers": [
        "window.FileError"
      ]
    },
    {
      "id": "cordova-plugin-file.FileReader",
      "file": "plugins/cordova-plugin-file/www/FileReader.js",
      "pluginId": "cordova-plugin-file",
      "clobbers": [
        "window.FileReader"
      ]
    },
    {
      "id": "cordova-plugin-file.FileSystem",
      "file": "plugins/cordova-plugin-file/www/FileSystem.js",
      "pluginId": "cordova-plugin-file",
      "clobbers": [
        "window.FileSystem"
      ]
    },
    {
      "id": "cordova-plugin-file.FileUploadOptions",
      "file": "plugins/cordova-plugin-file/www/FileUploadOptions.js",
      "pluginId": "cordova-plugin-file",
      "clobbers": [
        "window.FileUploadOptions"
      ]
    },
    {
      "id": "cordova-plugin-file.FileUploadResult",
      "file": "plugins/cordova-plugin-file/www/FileUploadResult.js",
      "pluginId": "cordova-plugin-file",
      "clobbers": [
        "window.FileUploadResult"
      ]
    },
    {
      "id": "cordova-plugin-file.FileWriter",
      "file": "plugins/cordova-plugin-file/www/FileWriter.js",
      "pluginId": "cordova-plugin-file",
      "clobbers": [
        "window.FileWriter"
      ]
    },
    {
      "id": "cordova-plugin-file.Flags",
      "file": "plugins/cordova-plugin-file/www/Flags.js",
      "pluginId": "cordova-plugin-file",
      "clobbers": [
        "window.Flags"
      ]
    },
    {
      "id": "cordova-plugin-file.LocalFileSystem",
      "file": "plugins/cordova-plugin-file/www/LocalFileSystem.js",
      "pluginId": "cordova-plugin-file",
      "clobbers": [
        "window.LocalFileSystem"
      ],
      "merges": [
        "window"
      ]
    },
    {
      "id": "cordova-plugin-file.Metadata",
      "file": "plugins/cordova-plugin-file/www/Metadata.js",
      "pluginId": "cordova-plugin-file",
      "clobbers": [
        "window.Metadata"
      ]
    },
    {
      "id": "cordova-plugin-file.ProgressEvent",
      "file": "plugins/cordova-plugin-file/www/ProgressEvent.js",
      "pluginId": "cordova-plugin-file",
      "clobbers": [
        "window.ProgressEvent"
      ]
    },
    {
      "id": "cordova-plugin-file.fileSystems",
      "file": "plugins/cordova-plugin-file/www/fileSystems.js",
      "pluginId": "cordova-plugin-file"
    },
    {
      "id": "cordova-plugin-file.requestFileSystem",
      "file": "plugins/cordova-plugin-file/www/requestFileSystem.js",
      "pluginId": "cordova-plugin-file",
      "clobbers": [
        "window.requestFileSystem"
      ]
    },
    {
      "id": "cordova-plugin-file.resolveLocalFileSystemURI",
      "file": "plugins/cordova-plugin-file/www/resolveLocalFileSystemURI.js",
      "pluginId": "cordova-plugin-file",
      "merges": [
        "window"
      ]
    },
    {
      "id": "cordova-plugin-file.isChrome",
      "file": "plugins/cordova-plugin-file/www/browser/isChrome.js",
      "pluginId": "cordova-plugin-file",
      "runs": true
    },
    {
      "id": "cordova-plugin-file.iosFileSystem",
      "file": "plugins/cordova-plugin-file/www/ios/FileSystem.js",
      "pluginId": "cordova-plugin-file",
      "merges": [
        "FileSystem"
      ]
    },
    {
      "id": "cordova-plugin-file.fileSystems-roots",
      "file": "plugins/cordova-plugin-file/www/fileSystems-roots.js",
      "pluginId": "cordova-plugin-file",
      "runs": true
    },
    {
      "id": "cordova-plugin-file.fileSystemPaths",
      "file": "plugins/cordova-plugin-file/www/fileSystemPaths.js",
      "pluginId": "cordova-plugin-file",
      "merges": [
        "cordova"
      ],
      "runs": true
    },
    {
      "id": "cordova-plugin-file-transfer.FileTransferError",
      "file": "plugins/cordova-plugin-file-transfer/www/FileTransferError.js",
      "pluginId": "cordova-plugin-file-transfer",
      "clobbers": [
        "window.FileTransferError"
      ]
    },
    {
      "id": "cordova-plugin-file-transfer.FileTransfer",
      "file": "plugins/cordova-plugin-file-transfer/www/FileTransfer.js",
      "pluginId": "cordova-plugin-file-transfer",
      "clobbers": [
        "window.FileTransfer"
      ]
    },
    {
      "id": "cordova-plugin-camera.Camera",
      "file": "plugins/cordova-plugin-camera/www/CameraConstants.js",
      "pluginId": "cordova-plugin-camera",
      "clobbers": [
        "Camera"
      ]
    },
    {
      "id": "cordova-plugin-camera.CameraPopoverOptions",
      "file": "plugins/cordova-plugin-camera/www/CameraPopoverOptions.js",
      "pluginId": "cordova-plugin-camera",
      "clobbers": [
        "CameraPopoverOptions"
      ]
    },
    {
      "id": "cordova-plugin-camera.camera",
      "file": "plugins/cordova-plugin-camera/www/Camera.js",
      "pluginId": "cordova-plugin-camera",
      "clobbers": [
        "navigator.camera"
      ]
    },
    {
      "id": "cordova-plugin-camera.CameraPopoverHandle",
      "file": "plugins/cordova-plugin-camera/www/ios/CameraPopoverHandle.js",
      "pluginId": "cordova-plugin-camera",
      "clobbers": [
        "CameraPopoverHandle"
      ]
    },
    {
      "id": "cordova-plugin-network-information.network",
      "file": "plugins/cordova-plugin-network-information/www/network.js",
      "pluginId": "cordova-plugin-network-information",
      "clobbers": [
        "navigator.connection",
        "navigator.network.connection"
      ]
    },
    {
      "id": "cordova-plugin-network-information.Connection",
      "file": "plugins/cordova-plugin-network-information/www/Connection.js",
      "pluginId": "cordova-plugin-network-information",
      "clobbers": [
        "Connection"
      ]
    },
    {
      "id": "iamport-cordova.IamportCordova",
      "file": "plugins/iamport-cordova/www/IamportCordova.js",
      "pluginId": "iamport-cordova",
      "clobbers": [
        "cordova.plugins.IamportCordova"
      ]
    }
  ],
  "plugin_metadata": {
    "cordova-android-support-gradle-release": "3.0.1",
    "cordova-plugin-android-permissions": "1.1.0",
    "cordova-plugin-androidx": "3.0.0",
    "cordova-plugin-androidx-adapter": "1.1.1",
    "cordova-plugin-device": "2.0.2",
    "cordova-plugin-document-viewer": "0.9.13",
    "cordova-plugin-fcm-with-dependecy-updated": "7.3.1",
    "cordova-plugin-file-opener2": "3.0.5",
    "cordova-plugin-firebasex": "11.0.3",
    "cordova-plugin-ionic-webview": "4.2.1",
    "cordova-plugin-file": "6.0.2",
    "cordova-plugin-file-transfer": "1.7.1",
    "cordova-plugin-camera": "4.1.0",
    "cordova-plugin-network-information": "2.0.2",
    "iamport-cordova": "0.9.8"
  }
}
