{
    "declarations": {
        "use_frameworks!": {
            "declaration": "use_frameworks!",
            "count": 1
        }
    },
    "sources": {
        "https://github.com/CocoaPods/Specs.git": {
            "source": "https://github.com/CocoaPods/Specs.git",
            "count": 1
        },
        "https://cdn.cocoapods.org/": {
            "source": "https://cdn.cocoapods.org/",
            "count": 1
        }
    },
    "libraries": {
        "Firebase/Messaging": {
            "name": "Firebase/Messaging",
            "count": 2
        },
        "Firebase/Core": {
            "name": "Firebase/Core",
            "spec": "6.33.0",
            "count": 1
        },
        "Firebase/Auth": {
            "name": "Firebase/Auth",
            "spec": "6.33.0",
            "count": 1
        },
        "Firebase/Performance": {
            "name": "Firebase/Performance",
            "spec": "6.33.0",
            "count": 1
        },
        "Firebase/RemoteConfig": {
            "name": "Firebase/RemoteConfig",
            "spec": "6.33.0",
            "count": 1
        },
        "Firebase/InAppMessaging": {
            "name": "Firebase/InAppMessaging",
            "spec": "6.33.0",
            "count": 1
        },
        "FirebaseFirestore": {
            "name": "FirebaseFirestore",
            "git": "https://github.com/invertase/firestore-ios-sdk-frameworks.git",
            "tag": "6.33.0",
            "count": 1
        },
        "Firebase/Crashlytics": {
            "name": "Firebase/Crashlytics",
            "spec": "6.33.0",
            "count": 1
        },
        "GoogleSignIn": {
            "name": "GoogleSignIn",
            "spec": "5.0.2",
            "count": 1
        },
        "GoogleTagManager": {
            "name": "GoogleTagManager",
            "spec": "7.1.4",
            "count": 1
        }
    }
}